<?xml version="1.0" encoding="iso-8859-1"?>
<!-- Generator: Adobe Illustrator 16.0.0, SVG Export Plug-In . SVG Version: 6.00 Build 0)  -->
<!DOCTYPE svg PUBLIC "-//W3C//DTD SVG 1.1//EN" "http://www.w3.org/Graphics/SVG/1.1/DTD/svg11.dtd">
<svg version="1.1" xmlns="http://www.w3.org/2000/svg" xmlns:xlink="http://www.w3.org/1999/xlink" x="0px" y="0px" width="30px"
	 height="30.107px" viewBox="0 0 30 30.107" style="enable-background:new 0 0 30 30.107;" xml:space="preserve">
<g id="calculate">
	<path d="M12.969,0H1.031C0.462,0,0,0.462,0,1.031v11.938C0,13.538,0.462,14,1.031,14h11.938C13.538,14,14,13.538,14,12.969V1.031
		C14,0.462,13.538,0,12.969,0z M10.459,8H3.542c-0.553,0-1-0.447-1-1s0.447-1,1-1h6.917c0.553,0,1,0.447,1,1S11.012,8,10.459,8z"/>
	<path d="M12.969,16H1.031C0.462,16,0,16.462,0,17.031v11.938C0,29.538,0.462,30,1.031,30h11.938C13.538,30,14,29.538,14,28.969
		V17.031C14,16.462,13.538,16,12.969,16z M10.459,24.107H8v2.459c0,0.553-0.447,1-1,1s-1-0.447-1-1v-2.459H3.542
		c-0.553,0-1-0.447-1-1s0.447-1,1-1H6v-2.459c0-0.553,0.447-1,1-1s1,0.447,1,1v2.459h2.459c0.553,0,1,0.447,1,1
		S11.012,24.107,10.459,24.107z"/>
	<path d="M28.969,0.107H17.031C16.462,0.107,16,0.569,16,1.139v11.938c0,0.569,0.462,1.031,1.031,1.031h11.938
		c0.569,0,1.031-0.462,1.031-1.031V1.139C30,0.569,29.538,0.107,28.969,0.107z M26.153,10.152c-0.195,0.195-0.451,0.293-0.707,0.293
		s-0.512-0.098-0.707-0.293L23,8.414l-1.738,1.738c-0.195,0.195-0.451,0.293-0.707,0.293s-0.512-0.098-0.707-0.293
		c-0.391-0.391-0.391-1.023,0-1.414L21.586,7l-1.738-1.738c-0.391-0.391-0.391-1.023,0-1.414s1.023-0.391,1.414,0L23,5.586
		l1.738-1.738c0.391-0.391,1.023-0.391,1.414,0s0.391,1.023,0,1.414L24.414,7l1.739,1.738C26.544,9.129,26.544,9.762,26.153,10.152z
		"/>
	<path d="M28.969,16.107H17.031c-0.569,0-1.031,0.462-1.031,1.031v11.938c0,0.569,0.462,1.031,1.031,1.031h11.938
		c0.569,0,1.031-0.462,1.031-1.031V17.139C30,16.569,29.538,16.107,28.969,16.107z M26.459,26.5h-6.917c-0.553,0-1-0.447-1-1
		s0.447-1,1-1h6.917c0.553,0,1,0.447,1,1S27.012,26.5,26.459,26.5z M26.459,21.5h-6.917c-0.553,0-1-0.447-1-1s0.447-1,1-1h6.917
		c0.553,0,1,0.447,1,1S27.012,21.5,26.459,21.5z"/>
</g>
<g id="Layer_1">
</g>
</svg>
