<?xml version="1.0" encoding="iso-8859-1"?>
<!-- Generator: Adobe Illustrator 16.0.0, SVG Export Plug-In . SVG Version: 6.00 Build 0)  -->
<!DOCTYPE svg PUBLIC "-//W3C//DTD SVG 1.1//EN" "http://www.w3.org/Graphics/SVG/1.1/DTD/svg11.dtd">
<svg version="1.1" id="Layer_1" xmlns="http://www.w3.org/2000/svg" xmlns:xlink="http://www.w3.org/1999/xlink" x="0px" y="0px"
	 width="23px" height="31px" viewBox="0 0 23 31" style="enable-background:new 0 0 23 31;" xml:space="preserve">
<g id="curious">
	<path d="M13.145,0C4.381,0,0,4.212,0,9.411c0,1.774,0.573,3.434,1.568,4.849c1.632,2.316,2.197,5.217,1.561,7.978l-1.738,7.539
		c-0.068,0.297,0.002,0.607,0.191,0.847s0.479,0.378,0.782,0.378h7.805c0.528,0,0.985-0.364,1.104-0.879l1.183-5.121h4.56
		c2.327,0,4.326-1.659,4.748-3.947C22.328,17.988,23,13.966,23,12.18C23,5.452,19.715,0,13.145,0z M11.5,20
		c-0.828,0-1.5-0.672-1.5-1.5s0.672-1.5,1.5-1.5s1.5,0.672,1.5,1.5S12.328,20,11.5,20z M13.896,11.711
		c-0.932,1.098-1.313,2.077-1.268,3.223l0.025,0.501h-2.578l-0.049-0.62c-0.118-1.241,0.311-2.555,1.433-3.915
		c0.907-1.074,1.505-1.909,1.505-2.841c0-1.003-0.622-1.672-1.959-1.694c-0.834,0-1.789,0.264-2.387,0.717L7.904,4.98
		c0.859-0.55,2.242-0.979,3.746-0.979c2.961,0,4.32,1.719,4.32,3.628C15.971,9.347,14.921,10.541,13.896,11.711z"/>
</g>
<g id="Layer_1_1_">
</g>
</svg>
