<?xml version="1.0" encoding="iso-8859-1"?>
<!-- Generator: Adobe Illustrator 16.0.0, SVG Export Plug-In . SVG Version: 6.00 Build 0)  -->
<!DOCTYPE svg PUBLIC "-//W3C//DTD SVG 1.1//EN" "http://www.w3.org/Graphics/SVG/1.1/DTD/svg11.dtd">
<svg version="1.1" xmlns="http://www.w3.org/2000/svg" xmlns:xlink="http://www.w3.org/1999/xlink" x="0px" y="0px" width="26px"
	 height="29px" viewBox="0 0 26 29" style="enable-background:new 0 0 26 29;" xml:space="preserve">
<g id="floppy">
	<path d="M18,27H8c-0.552,0-1,0.447-1,1s0.448,1,1,1h10c0.552,0,1-0.447,1-1S18.552,27,18,27z"/>
	<path d="M18,23H8c-0.552,0-1,0.447-1,1s0.448,1,1,1h10c0.552,0,1-0.447,1-1S18.552,23,18,23z"/>
	<path d="M18,19H8c-0.552,0-1,0.447-1,1s0.448,1,1,1h10c0.552,0,1-0.447,1-1S18.552,19,18,19z"/>
	<path d="M23,2v7.162C23,10.729,21.729,12,20.162,12H5.838C4.271,12,3,10.729,3,9.162V2C1.344,2,0,3.343,0,5v21.014
		C0,27.663,1.337,29,2.986,29H5V18c0-0.553,0.447-1,1-1h14c0.552,0,1,0.447,1,1v11h2.014C24.663,29,26,27.663,26,26.014V5
		C26,3.343,24.656,2,23,2z M4,26H2.873C2.391,26,2,25.609,2,25.127v-0.254C2,24.391,2.391,24,2.873,24H4V26z M24,25.127
		C24,25.609,23.609,26,23.127,26H22v-2h1.127C23.609,24,24,24.391,24,24.873V25.127z"/>
	<path d="M6.024,10h13.951C20.541,10,21,9.541,21,8.976V1.024C21,0.459,20.541,0,19.976,0H6.024C5.459,0,5,0.459,5,1.024v7.951
		C5,9.541,5.459,10,6.024,10z M16,5.945C16,5.424,16.423,5,16.945,5h1.109C18.577,5,19,5.424,19,5.945v1.109
		C19,7.576,18.577,8,18.055,8h-1.109C16.423,8,16,7.576,16,7.055V5.945z"/>
</g>
<g id="Layer_1">
</g>
</svg>
