<?xml version="1.0" encoding="iso-8859-1"?>
<!-- Generator: Adobe Illustrator 16.0.0, SVG Export Plug-In . SVG Version: 6.00 Build 0)  -->
<!DOCTYPE svg PUBLIC "-//W3C//DTD SVG 1.1//EN" "http://www.w3.org/Graphics/SVG/1.1/DTD/svg11.dtd">
<svg version="1.1" xmlns="http://www.w3.org/2000/svg" xmlns:xlink="http://www.w3.org/1999/xlink" x="0px" y="0px"
	 width="29.811px" height="28px" viewBox="0 0 29.811 28" style="enable-background:new 0 0 29.811 28;" xml:space="preserve">
<g id="justify-all">
	<path d="M28.313,2.959L1.503,3H1.5C0.673,3,0.002,2.339,0,1.512c-0.002-0.829,0.668-1.494,1.497-1.496L28.308,0
		c0,0,0.002,0,0.003,0c0.827,0,1.498,0.648,1.5,1.476C29.813,2.305,29.143,2.957,28.313,2.959z"/>
	<path d="M1.497,5.016L28.308,5c0,0,0.002,0,0.003,0c0.827,0,1.498,0.648,1.5,1.476c0.002,0.829-0.668,1.481-1.497,1.483L1.503,8
		H1.5C0.673,8,0.002,7.339,0,6.512C-0.002,5.683,0.668,5.018,1.497,5.016z"/>
	<path d="M1.497,10.016L28.308,10c0,0,0.002,0,0.003,0c0.827,0,1.498,0.648,1.5,1.476c0.002,0.829-0.668,1.481-1.497,1.483L1.503,13
		H1.5c-0.827,0-1.498-0.661-1.5-1.488C-0.002,10.683,0.668,10.018,1.497,10.016z"/>
	<path d="M1.497,15.016L28.308,15c0,0,0.002,0,0.003,0c0.827,0,1.498,0.648,1.5,1.476c0.002,0.829-0.668,1.481-1.497,1.483L1.503,18
		H1.5c-0.827,0-1.498-0.661-1.5-1.488C-0.002,15.683,0.668,15.018,1.497,15.016z"/>
	<path d="M1.497,20.016L28.308,20c0,0,0.002,0,0.003,0c0.827,0,1.498,0.648,1.5,1.476c0.002,0.829-0.668,1.481-1.497,1.483L1.503,23
		H1.5c-0.827,0-1.498-0.661-1.5-1.488C-0.002,20.683,0.668,20.018,1.497,20.016z"/>
	<path d="M1.497,25.016L28.308,25c0,0,0.002,0,0.003,0c0.827,0,1.498,0.648,1.5,1.476c0.002,0.829-0.668,1.481-1.497,1.483L1.503,28
		H1.5c-0.827,0-1.498-0.661-1.5-1.488C-0.002,25.683,0.668,25.018,1.497,25.016z"/>
</g>
<g id="Layer_1">
</g>
</svg>
