<?xml version="1.0" encoding="iso-8859-1"?>
<!-- Generator: Adobe Illustrator 16.0.0, SVG Export Plug-In . SVG Version: 6.00 Build 0)  -->
<!DOCTYPE svg PUBLIC "-//W3C//DTD SVG 1.1//EN" "http://www.w3.org/Graphics/SVG/1.1/DTD/svg11.dtd">
<svg version="1.1" xmlns="http://www.w3.org/2000/svg" xmlns:xlink="http://www.w3.org/1999/xlink" x="0px" y="0px"
	 width="27.002px" height="19.146px" viewBox="0 0 27.002 19.146" style="enable-background:new 0 0 27.002 19.146;"
	 xml:space="preserve">
<g id="correct">
	<path d="M9.85,19.146c-1.13,0-2.229-0.46-3.02-1.26l-6.106-6.189C-0.25,10.708-0.24,9.116,0.748,8.142
		C1.737,7.167,3.33,7.177,4.303,8.165l5.541,5.617L22.697,0.749c0.976-0.989,2.567-1,3.557-0.024
		c0.987,0.975,0.998,2.567,0.024,3.556L12.861,17.885C12.074,18.684,10.976,19.145,9.85,19.146z"/>
</g>
<g id="Layer_1">
</g>
</svg>
