<?xml version="1.0" encoding="iso-8859-1"?>
<!-- Generator: Adobe Illustrator 16.0.0, SVG Export Plug-In . SVG Version: 6.00 Build 0)  -->
<!DOCTYPE svg PUBLIC "-//W3C//DTD SVG 1.1//EN" "http://www.w3.org/Graphics/SVG/1.1/DTD/svg11.dtd">
<svg version="1.1" xmlns="http://www.w3.org/2000/svg" xmlns:xlink="http://www.w3.org/1999/xlink" x="0px" y="0px"
	 width="26.984px" height="19.846px" viewBox="0 0 26.984 19.846" style="enable-background:new 0 0 26.984 19.846;"
	 xml:space="preserve">
<g id="right-2">
	<path class='accent-darkest-icon' d="M26.375,8.865L12.072,0.18c-0.382-0.232-0.924-0.24-1.313-0.021S10,0.789,10,1.236v2.852c0,1.013-0.821,1.758-1.834,1.758
		H0.99C0.443,5.846,0,6.365,0,6.912v6.02c0,0.547,0.443,0.914,0.99,0.914h7.176c1.013,0,1.834,0.897,1.834,1.91v2.852
		c0,0.447,0.367,0.86,0.757,1.079c0.39,0.22,0.993,0.211,1.376-0.021l14.266-8.686c0.369-0.225,0.586-0.626,0.586-1.058
		S26.743,9.09,26.375,8.865z"/>
</g>
<g id="Layer_1">
</g>
</svg>
