<?xml version="1.0" encoding="iso-8859-1"?>
<!-- Generator: Adobe Illustrator 16.0.0, SVG Export Plug-In . SVG Version: 6.00 Build 0)  -->
<!DOCTYPE svg PUBLIC "-//W3C//DTD SVG 1.1//EN" "http://www.w3.org/Graphics/SVG/1.1/DTD/svg11.dtd">
<svg version="1.1" xmlns="http://www.w3.org/2000/svg" xmlns:xlink="http://www.w3.org/1999/xlink" x="0px" y="0px" width="25px"
	 height="32px" viewBox="0 0 25 32" style="enable-background:new 0 0 25 32;" xml:space="preserve">
<g id="file-new">
	<path d="M18.629,1.629c-0.272-0.272-0.684-0.354-1.04-0.207C17.232,1.57,17,1.918,17,2.304v4.742C17,7.573,17.428,8,17.954,8h4.742
		c0.386,0,0.733-0.232,0.882-0.589c0.147-0.357,0.065-0.768-0.207-1.04L18.629,1.629z"/>
	<path d="M16.922,10C15.86,10,15,9.14,15,8.078V0.954C15,0.427,14.572,0,14.046,0H2.965C1.327,0,0,1.327,0,2.965v26.07
		C0,30.673,1.327,32,2.965,32h19.07C23.673,32,25,30.673,25,29.035V10.954C25,10.427,24.572,10,24.046,10H16.922z"/>
</g>
<g id="Layer_1">
</g>
</svg>
