<?xml version="1.0" encoding="iso-8859-1"?>
<!-- Generator: Adobe Illustrator 16.0.0, SVG Export Plug-In . SVG Version: 6.00 Build 0)  -->
<!DOCTYPE svg PUBLIC "-//W3C//DTD SVG 1.1//EN" "http://www.w3.org/Graphics/SVG/1.1/DTD/svg11.dtd">
<svg version="1.1" xmlns="http://www.w3.org/2000/svg" xmlns:xlink="http://www.w3.org/1999/xlink" x="0px" y="0px" width="29px"
	 height="25px" viewBox="0 0 29 25" style="enable-background:new 0 0 29 25;" xml:space="preserve">
<g id="shopping-cart">
	<path class='accent-darkest-icon' d="M28.412,3.878C27.939,3.32,27.249,3,26.519,3H7.35l-0.32-0.961C6.622,0.819,5.485,0,4.2,0H1.5C0.672,0,0,0.672,0,1.5
		S0.672,3,1.5,3l2.684-0.012L9.255,18.2c0.401,1.208,1.336,2.108,2.482,2.528C11.282,21.181,11,21.808,11,22.5
		c0,1.381,1.119,2.5,2.5,2.5s2.5-1.119,2.5-2.5c0-0.565-0.194-1.081-0.512-1.5h6.023C21.194,21.419,21,21.935,21,22.5
		c0,1.381,1.119,2.5,2.5,2.5s2.5-1.119,2.5-2.5c0-0.565-0.194-1.081-0.512-1.5h0.279c0.828,0,1.5-0.672,1.5-1.5s-0.672-1.5-1.5-1.5
		h-12.63c-0.472,0-0.888-0.3-1.037-0.748L12.017,17h12.995c1.219,0,2.248-0.872,2.448-2.074l1.506-9.034
		C29.087,5.17,28.886,4.437,28.412,3.878z M11,11h-0.983l-0.148-0.446L9.727,9H11V11z M11,7H9.545L9.363,5H11V7z M15,15h-2v-2h2V15z
		 M15,11h-2V9h2V11z M15,7h-2V5h2V7z M19,15h-2v-2h2V15z M19,11h-2V9h2V11z M19,7h-2V5h2V7z M22.281,15H21v-2h1.445l-0.174,1.909
		C22.269,14.94,22.281,14.969,22.281,15z M22.627,11H21V9h1.809L22.627,11z M22.99,7H21V5h2.172L22.99,7z M25.487,14.598
		C25.448,14.831,25.248,15,25.012,15h-0.74l0.183-2h1.3L25.487,14.598z M26.087,11h-1.451l0.182-2h1.603L26.087,11z M26.754,7
		h-1.755l0.182-2h1.338c0.142,0,0.276,0.063,0.368,0.171c0.091,0.107,0.13,0.25,0.106,0.391L26.754,7z"/>
</g>
<g id="Layer_1">
</g>
</svg>
