<?xml version="1.0" encoding="utf-8"?>
<!-- Generator: Adobe Illustrator 19.1.0, SVG Export Plug-In . SVG Version: 6.00 Build 0)  -->
<svg version="1.1" id="Layer_1" xmlns="http://www.w3.org/2000/svg" xmlns:xlink="http://www.w3.org/1999/xlink" x="0px" y="0px"
	 viewBox="-470.9 266 16 24" style="enable-background:new -470.9 266 16 24;" xml:space="preserve">


<g id="Question">
	<g>
		<path class='accent-darkest-icon'  d="M-462.9,266c-4.4,0-8,3.6-8,8c0,1.1,0.9,2,2,2s2-0.9,2-2c0-2.2,1.8-4,4-4s4,1.8,4,4c0,4.1-6,2.9-6,10h4
			c0-3.8,6-3.3,6-10C-454.9,269.6-458.5,266-462.9,266z M-462.9,286c-1.1,0-2,0.9-2,2c0,1.1,0.9,2,2,2s2-0.9,2-2
			C-460.9,286.9-461.8,286-462.9,286z"/>
	</g>
</g>
</svg>
