<?xml version="1.0" encoding="iso-8859-1"?>
<!-- Generator: Adobe Illustrator 16.0.0, SVG Export Plug-In . SVG Version: 6.00 Build 0)  -->
<!DOCTYPE svg PUBLIC "-//W3C//DTD SVG 1.1//EN" "http://www.w3.org/Graphics/SVG/1.1/DTD/svg11.dtd">
<svg version="1.1" xmlns="http://www.w3.org/2000/svg" xmlns:xlink="http://www.w3.org/1999/xlink" x="0px" y="0px"
	 width="20.414px" height="29px" viewBox="0 0 20.414 29" style="enable-background:new 0 0 20.414 29;" xml:space="preserve">
<g id="champagne">
	<path d="M9.762,16.505c-0.714-1.665-1.252-3.4-1.607-5.177L7.689,9L6.966,3.944C7.381,3.822,7.689,3.454,7.689,3V1
		c0-0.553-0.447-1-1-1h-2c-0.553,0-1,0.447-1,1v2c0,0.454,0.308,0.822,0.723,0.944L3.689,9l-0.466,2.328
		c-0.355,1.776-0.894,3.512-1.607,5.177l-0.767,1.789c-0.759,1.77-1.016,3.715-0.744,5.621L0.689,28c0,0.553,2.238,1,5,1
		s5-0.447,5-1l0.584-4.085c0.271-1.906,0.015-3.852-0.745-5.621L9.762,16.505z M8.689,26c0,0.553-0.447,1-1,1h-4
		c-0.553,0-1-0.447-1-1v-6c0-0.553,0.447-1,1-1h4c0.553,0,1,0.447,1,1V26z"/>
	<path d="M18.689,27h-1v-4.154c0.652-0.184,1.255-0.526,1.726-1.032c0.705-0.757,1.063-1.772,0.989-2.804L19.689,9h-6l-0.715,10.01
		c-0.074,1.031,0.284,2.047,0.989,2.804c0.471,0.506,1.073,0.849,1.726,1.032V27h-1c-0.553,0-1,0.447-1,1s0.447,1,1,1h4
		c0.553,0,1-0.447,1-1S19.242,27,18.689,27z"/>
	<circle class='accent-darkest-icon' cx="14.689" cy="4" r="1"/>
	<circle class='accent-darkest-icon' cx="16.689" cy="7" r="1"/>
	<circle class='accent-darkest-icon' cx="16.189" cy="1.5" r="0.5"/>
</g>
<g id="Layer_1">
</g>
</svg>
