<?xml version="1.0" encoding="utf-8"?>
<!-- Generator: Adobe Illustrator 19.1.0, SVG Export Plug-In . SVG Version: 6.00 Build 0)  -->
<svg version="1.1" id="Layer_1" xmlns="http://www.w3.org/2000/svg" xmlns:xlink="http://www.w3.org/1999/xlink" x="0px" y="0px"
	 viewBox="-231.5 379.4 25 35" style="enable-background:new -231.5 379.4 25 35;" xml:space="preserve">
<g id="Code">
	<g>
		<path d="M-210.2,394.1l-12-12c-1.6-1.6-4.1-1.6-5.7,0c-1.6,1.6-1.6,4.1,0,5.7l9.2,9.2l-9.2,9.2c-1.6,1.6-1.6,4.1,0,5.7
			c0.8,0.8,1.8,1.2,2.8,1.2c1,0,2.1-0.4,2.8-1.2l12-12C-208.6,398.2-208.6,395.7-210.2,394.1z"/>
	</g>
</g>
</svg>
