<?xml version="1.0" encoding="utf-8"?>
<!-- Generator: Adobe Illustrator 19.1.0, SVG Export Plug-In . SVG Version: 6.00 Build 0)  -->
<svg version="1.1" id="Layer_1" xmlns="http://www.w3.org/2000/svg" xmlns:xlink="http://www.w3.org/1999/xlink" x="0px" y="0px"
	 viewBox="-289 381.7 31.3 31.3" style="enable-background:new -289 381.7 31.3 31.3;" xml:space="preserve">
<style type="text/css">
	.st0{fill:#88C057;}
	.st1{fill:#FFFFFF;}
</style>
<g id="wand">
	<path d="M-258.3,408.8l-18.2-18.2c-0.8-0.8-2.1-0.8-2.9,0l-0.7,0.7c-0.8,0.8-0.8,2.1,0,2.9l18.2,18.2c0.8,0.8,2.1,0.8,2.9,0
		l0.7-0.7C-257.5,410.9-257.5,409.6-258.3,408.8z M-273.5,399.3l-5.1-5.1l2.2-2.2l5.1,5.1L-273.5,399.3z"/>
	<path d="M-282,389.9c0.3,0.3,0.8,0.3,1.2,0c0.3-0.3,0.3-0.8,0-1.2l-3.5-3.5c-0.3-0.3-0.8-0.3-1.2,0c-0.3,0.3-0.3,0.8,0,1.2
		L-282,389.9z"/>
	<path d="M-273.6,390.1l3.5-3.5c0.3-0.3,0.3-0.8,0-1.2c-0.3-0.3-0.8-0.3-1.2,0l-3.5,3.5c-0.3,0.3-0.3,0.8,0,1.2
		C-274.5,390.4-273.9,390.4-273.6,390.1z"/>
	<path d="M-281.8,396l-3.5,3.5c-0.3,0.3-0.3,0.8,0,1.2c0.3,0.3,0.8,0.3,1.2,0l3.5-3.5c0.3-0.3,0.3-0.8,0-1.2
		C-281,395.7-281.5,395.7-281.8,396z"/>
	<path d="M-282.4,393c0-0.3-0.4-0.6-0.8-0.6h-4.9c-0.5,0-0.8,0.3-0.8,0.6c0,0.3,0.4,0.6,0.8,0.6l4.9,0
		C-282.8,393.5-282.4,393.3-282.4,393z"/>
	<path d="M-277.7,388.3c0.3,0,0.6-0.4,0.6-0.8v-4.9c0-0.5-0.3-0.8-0.6-0.8c-0.3,0-0.6,0.4-0.6,0.8v4.9
		C-278.3,387.9-278,388.3-277.7,388.3z"/>
</g>
<g id="Layer_1_1_">
</g>
<g id="Elipse_5_">
	<g>
		<path class="st0" d="M-267.7,382c-5.4,0-9.7,4.4-9.7,9.7c0,5.4,4.4,9.7,9.7,9.7s9.7-4.4,9.7-9.7C-258,386.4-262.3,382-267.7,382z"
			/>
	</g>
</g>
<g id="OK">
	<g>
		<path class="st1" d="M-263.6,388.9c-0.2-0.2-0.6-0.2-0.9,0l-4.5,4.5l-2-2c-0.2-0.2-0.6-0.2-0.9,0c-0.2,0.2-0.2,0.6,0,0.9l2.4,2.4
			c0,0,0,0.1,0.1,0.1c0.1,0.1,0.3,0.2,0.4,0.2c0.2,0,0.3-0.1,0.4-0.2c0,0,0,0,0.1-0.1l4.8-4.8C-263.4,389.5-263.4,389.1-263.6,388.9
			z"/>
	</g>
</g>
</svg>
